antanym • antanym
…
A few additional (but probably less useful) columns can be included by calling an_read(..., simplified = FALSE). Consult the an_read documentation for more information.

Finding names

The an_filter function provides a range of options to find the names you are interested in.

Basic searching

A simple search for any place name containing the word ‘William’:

an_filter(g, query = "William")

## # A tibble: 75 × 14
##    gaz_id scar_common_id place_name    place_name_translite…¹ longitude latitude
##     <dbl>          <dbl> <chr>         <chr>                      <dbl>    <dbl>
##  1      8          16073 William Scor… William Scoresby Arch…      59.8    -67.3
##  2     75          16074 William Scor… William Scoresby Bay        59.6    -67.4
##  3    559          16090 Williamson G… Williamson Glacier         114.     -66.6
##  4    643          16092 Williamson H… Williamson Head            158.     -69.2
##  5   1240          16083 Williams Lake Williams Lake               78.2    -68.5
##  6   1428          16096 Mount Willia… Mount Williams              50.8    -66.8
##  7   1825          16084 Williams Nun… Williams Nunatak           111.     -66.4
##  8   2189          16097 Point Willia… Point Williams              67.6    -67.8
##  9   2430          16088 Williams Roc… Williams Rocks              62.8    -67.4
## 10 100917           2288 Fort William… Fort William, punta        -59.6    -62.4
## # ℹ 65 more rows
## # ℹ abbreviated name: ¹​place_name_transliterated
## # ℹ 8 more variables: altitude <dbl>, feature_type_name <chr>,
## #   date_named <dttm>, narrative <chr>, named_for <chr>, origin <chr>,
## #   relic <lgl>, gazetteer <chr>
…
Find names containing “William” and originating from Australia or the USA:

an_filter(g, query = "William", origin = "Australia|United States of America")

## # A tibble: 39 × 14
##    gaz_id scar_common_id place_name    place_name_translite…¹ longitude latitude
##     <dbl>          <dbl> <chr>         <chr>                      <dbl>    <dbl>
##  1      8          16073 William Scor… William Scoresby Arch…      59.8    -67.3
##  2     75          16074 William Scor… William Scoresby Bay        59.6    -67.4
##  3    559          16090 Williamson G… Williamson Glacier         114.     -66.6
##  4    643          16092 Williamson H… Williamson Head            158.     -69.2
##  5   1240          16083 Williams Lake Williams Lake               78.2    -68.5
##  6   1428          16096 Mount Willia… Mount Williams              50.8    -66.8
##  7   1825          16084 Williams Nun… Williams Nunatak           111.     -66.4
##  8   2189          16097 Point Willia… Point Williams              67.6    -67.8
##  9   2430          16088 Williams Roc… Williams Rocks              62.8    -67.4
## 10 125297           4839 Fort William  Fort William               -59.7    -62.4
## # ℹ 29 more rows
## # ℹ abbreviated name: ¹​place_name_transliterated
## # ℹ 8 more variables: altitude <dbl>, feature_type_name <chr>,
## #   date_named <dttm>, narrative <chr>, named_for <chr>, origin <chr>,
## #   relic <lgl>, gazetteer <chr>
…
Regular expressions

Regular expressions also allow more complex searches. For example, names matching “West” or “East”:

an_filter(g, query = "West|East")

## # A tibble: 142 × 14
##    gaz_id scar_common_id place_name    place_name_translite…¹ longitude latitude
##     <dbl>          <dbl> <chr>         <chr>                      <dbl>    <dbl>
##  1     12          15899 West Arm      West Arm                    62.9    -67.6
##  2     13           4025 East Arm      East Arm                    62.9    -67.6
##  3    556          14345 Sylwester Gl… Sylwester Glacier          160.     -84.2
##  4    738          15908 West Ice She… West Ice Shelf              85      -67  
##  5    870           4028 East Budd Is… East Budd Island            62.8    -67.6
##  6    895          15904 West Budd Is… West Budd Island            62.8    -67.6
##  7    976           4041 Easther Isla… Easther Island              76.2    -69.4
##  8   1169           4032 East Lake     East Lake                  143.     -67.0
##  9   1337           4030 East Egerton  East Egerton               158.     -80.8
## 10   1848          15923 Westhaven Nu… Westhaven Nunatak          154.     -79.8
## # ℹ 132 more rows
## # ℹ abbreviated name: ¹​place_name_transliterated
## # ℹ 8 more variables: altitude <dbl>, feature_type_name <chr>,
## #   date_named <dttm>, narrative <chr>, named_for <chr>, origin <chr>,
## #   relic <lgl>, gazetteer <chr>

Names starting with “West” or “East”:

an_filter(g, query = "^(West|East)")

## # A tibble: 96 × 14
##    gaz_id scar_common_id place_name    place_name_translite…¹ longitude latitude
##     <dbl>          <dbl> <chr>         <chr>                      <dbl>    <dbl>
##  1     12          15899 West Arm      West Arm                    62.9    -67.6
##  2     13           4025 East Arm      East Arm                    62.9    -67.6
##  3    738          15908 West Ice She… West Ice Shelf              85      -67  
##  4    870           4028 East Budd Is… East Budd Island            62.8    -67.6
##  5    895          15904 West Budd Is… West Budd Island            62.8    -67.6
##  6    976           4041 Easther Isla… Easther Island              76.2    -69.4
##  7   1169           4032 East Lake     East Lake                  143.     -67.0
##  8   1337           4030 East Egerton  East Egerton               158.     -80.8
##  9   1848          15923 Westhaven Nu… Westhaven Nunatak          154.     -79.8
## 10   2195          15927 Westwood Poi… Westwood Point              77.9    -68.6
## # ℹ 86 more rows
## # ℹ abbreviated name: ¹​place_name_transliterated
## # ℹ 8 more variables: altitude <dbl>, feature_type_name <chr>,
## #   date_named <dttm>, narrative <chr>, named_for <chr>, origin <chr>,
## #   relic <lgl>, gazetteer <chr>

Names with “West” or “East” appearing as complete words in the name (“\b” matches a word boundary; see help("regex")):

an_filter(g, query = "\\b(West|East)\\b")

## # A tibble: 97 × 14
##    gaz_id scar_common_id place_name    place_name_translite…¹ longitude latitude
##     <dbl>          <dbl> <chr>         <chr>                      <dbl>    <dbl>
##  1     12          15899 West Arm      West Arm                    62.9    -67.6
##  2     13           4025 East Arm      East Arm                    62.9    -67.6
##  3    738          15908 West Ice She… West Ice Shelf              85      -67  
##  4    870           4028 East Budd Is… East Budd Island            62.8    -67.6
##  5    895          15904 West Budd Is… West Budd Island            62.8    -67.6
##  6   1169           4032 East Lake     East Lake                  143.     -67.0
##  7   1337           4030 East Egerton  East Egerton               158.     -80.8
##  8   2489          15915 West Stack    West Stack                  58.1    -67.0
##  9   2490           4038 East Stack    East Stack                  58.3    -67.1
## 10 105006           1690 Bowles West … Bowles West Peak           -60.2    -62.6
## # ℹ 87 more rows
## # ℹ abbreviated name: ¹​place_name_transliterated
## # ℹ 8 more variables: altitude <dbl>, feature_type_name <chr>,
## #   date_named <dttm>, narrative <chr>, named_for <chr>, origin <chr>,
## #   relic <lgl>, gazetteer <chr>

Spatial searching

We can filter by spatial extent:

an_filter(g, extent = c(100, 120, -70, -65))

## # A tibble: 752 × 14
##    gaz_id scar_common_id place_name    place_name_translite…¹ longitude latitude
##     <dbl>          <dbl> <chr>         <chr>                      <dbl>    <dbl>
##  1      7           6373 Highjump Arc… Highjump Archipelago        101.    -66.0
##  2     15           8581 Loewe Massif… Loewe Massif Automati…      112.    -68.4
##  3     17           8210 Law Dome Sum… Law Dome Summit             113.    -66.7
##  4     28          11156 Petersen Bank Petersen Bank               111.    -65.8
##  5     31           8143 Larsen Bank   Larsen Bank                 111.    -66.3
##  6     41           8700 Luchistaja B… Luchistaja Bay              101.    -66.1
##  7     42           8881 Majachnaja B… Majachnaja Bay              101.    -66.2
##  8     44           8339 Leonova Bay   Leonova Bay                 101.    -66.2
##  9     45          15468 Vetvistaja B… Vetvistaja Bay              101.    -66.1
## 10     46          10722 Ostrovnaja B… Ostrovnaja Bay              101.    -66.2
## # ℹ 742 more rows
## # ℹ abbreviated name: ¹​place_name_transliterated
## # ℹ 8 more variables: altitude <dbl>, feature_type_name <chr>,
## #   date_named <dttm>, narrative <chr>, named_for <chr>, origin <chr>,
## #   relic <lgl>, gazetteer <chr>

The extent can also be passed as Spatial or Raster object, in which case its extent will be used:

my_sp <- sp::SpatialPoints(cbind(c(100, 120), c(-70, -65)))
an_filter(g, extent = my_sp)

## # A tibble: 752 × 14
##    gaz_id scar_common_id place_name    place_name_translite…¹ longitude latitude
##     <dbl>          <dbl> <chr>         <chr>                      <dbl>    <dbl>
##  1      7           6373 Highjump Arc… Highjump Archipelago        101.    -66.0
##  2     15           8581 Loewe Massif… Loewe Massif Automati…      112.    -68.4
##  3     17           8210 Law Dome Sum… Law Dome Summit             113.    -66.7
##  4     28          11156 Petersen Bank Petersen Bank               111.    -65.8
##  5     31           8143 Larsen Bank   Larsen Bank                 111.    -66.3
##  6     41           8700 Luchistaja B… Luchistaja Bay              101.    -66.1
##  7     42           8881 Majachnaja B… Majachnaja Bay              101.    -66.2
##  8     44           8339 Leonova Bay   Leonova Bay                 101.    -66.2
##  9     45          15468 Vetvistaja B… Vetvistaja Bay              101.    -66.1
## 10     46          10722 Ostrovnaja B… Ostrovnaja Bay              101.    -66.2
## # ℹ 742 more rows
## # ℹ abbreviated name: ¹​place_name_transliterated
## # ℹ 8 more variables: altitude <dbl>, feature_type_name <chr>,
## #   date_named <dttm>, narrative <chr>, named_for <chr>, origin <chr>,
## #   relic <lgl>, gazetteer <chr>
…
